…
## Installation

```r
devtools::install_github("kleinschmidt/nspvowels")
```

## Use

``` r
library(nspvowels)
nsp_vows          
#> # A tibble: 2,659 x 10
#>    Talker      Dialect    Sex   Age  Word  Vowel Vowel_ipa Token    F1
#>    <fctr>        <chr> <fctr> <int> <chr> <fctr>    <fctr> <int> <int>
#>  1    A18 Mid-Atlantic      f    18   had     ae         æ     1  1062
#>  2    A18 Mid-Atlantic      f    18   had     ae         æ     2  1074
#>  3    A18 Mid-Atlantic      f    18   had     ae         æ     3  1093
#>  4    A18 Mid-Atlantic      f    18   had     ae         æ     4  1070
#>  5    A18 Mid-Atlantic      f    18   had     ae         æ     5  1025
#>  6    A18 Mid-Atlantic      f    18 hawed     ao         ɔ     1   754
#>  7    A18 Mid-Atlantic      f    18 hawed     ao         ɔ     2   876
#>  8    A18 Mid-Atlantic      f    18 hawed     ao         ɔ     3   807
#>  9    A18 Mid-Atlantic      f    18 hawed     ao         ɔ     4   730
#> 10    A18 Mid-Atlantic      f    18 hawed     ao         ɔ     5   622
#> # ... with 2,649 more rows, and 1 more variables: F2 <int>
```
